767650 163427 509
393041 640706 509
142442 582826 470
16115 109351 354
201688 58114 383
372124 269596 441
433205 912141 525
324697 205941 443
567608 259039 470
76800 656846 509
472378 653968 509
127776 425270 449
58803 908666 525
87336 918850 525
914362 665241 525
724254 420344 509
155173 596333 470
945572 514268 525
273784 13892 443
619756 470495 470
819999 593293 509
678483 987006 525
249970 851994 525
232627 994923 525
167526 149971 383
627452 171604 509
68877 207175 383
10248 417799 449
378423 336270 441
497844 312916 449
5527 146818 375
707672 389371 509
940363 342067 525
933400 394322 525
904886 763596 525
577885 321007 470
54278 113347 354
667900 177304 509
761164 815551 468
77099 295303 443
996502 638025 525
92340 118522 354
101298 247785 443
701020 81924 509
996092 541607 525
691430 128693 509
515031 935384 525
828460 357005 509
675386 631839 442
838254 495059 525
248429 30456 443
266094 264476 332
742917 145070 509
444757 549488 470
155012 732189 509
467556 356424 449
888354 562746 525
591113 732661 509
600889 27434 470
160223 558388 470
105232 367101 443
923385 95468 525
512979 217980 470
195405 791355 509
386253 802234 509
489045 398694 449
221789 347375 443
78545 611172 470
867826 394282 525
570017 60446 470
475883 948088 525
922649 899123 476
295183 220273 443
551098 562183 421
287493 443113 449
466978 347080 449
781760 311259 509
195545 804200 509
859126 767086 525
790136 312078 509
146879 558783 470
713599 318852 509
431199 294977 449
448661 982579 525
737916 293011 509
937778 971377 507
824226 854919 525
865858 695751 525
446433 206722 449
833830 561222 509
484219 693872 509
564294 659583 509
498341 545733 470
336432 204965 443
895978 128777 525
370696 587247 470
995785 689602 525
805175 124824 509
661433 81424 509
4060 189707 383
494561 125057 449
179819 864742 525
846596 457752 525
16714 824647 509
263606 33963 443
841821 246392 525
710516 712015 380
850189 600975 525
225929 452556 449
144475 951727 525
256681 58785 443
565168 863865 525
665960 680780 398
158681 500202 449
542316 238115 470
689593 108303 509
963928 862192 507
974167 313754 525
701221 251308 509
872784 869841 432
338629 4751 443
135289 52038 354
201350 951876 525
495927 234632 449
423473 588192 470
820808 728438 468
307311 550694 470
665592 707590 504
847327 907103 445
321423 605526 470
441354 18191 449
495042 136423 449
559740 10132 470
706777 840405 525
158589 992209 525
621917 901510 525
940217 277833 525
482629 579464 470
469437 77859 449
139351 478155 449
876271 531948 525
156740 477104 449
681619 249999 509
656452 806110 504
841274 54412 525
831446 39687 509
136058 364193 443
261079 882636 525
660144 681962 442
643060 363901 509
715858 615368 509
404518 267540 441
976587 680960 525
783389 605158 509
153950 483889 449
303348 737801 509
794820 283596 509
24115 414100 449
548584 102498 470
984943 774712 525
213139 579595 470
690436 296382 509
586613 500300 470
66885 90981 351
687524 532731 509
317177 793499 509
131230 147076 375
99243 238380 443
628997 323107 509
750104 34022 509
505808 758211 509
586685 395345 470
294517 483384 449
16116 110522 354
128831 809242 509
27245 70892 340
627585 475876 509
638978 119107 509
561066 109604 470
225018 295947 443
313796 87814 443
374364 22800 443
572648 937273 525
980296 241271 525
921461 627533 525
683883 801724 504
354968 938417 525
836700 46259 509
694631 693358 323
382467 204449 443
578420 14322 470
365037 481161 449
595438 242938 470
602739 287551 470
665292 829614 504
469214 989025 525
704060 505373 509
765678 159470 509
305113 468400 449
605313 433376 470
648272 977850 525
931049 711072 525
519323 511438 470
969862 120640 525
508825 873224 525
616085 26010 470
426143 799489 509
564135 912425 525
719191 468035 509
250494 585274 470
927664 354825 525
114111 345209 443
252074 608251 470
362383 644282 509
161820 11387 383
513354 438638 470
162630 376618 443
369719 616134 470
422162 904462 525
848811 538126 525
629423 711885 504
209260 671202 509
695436 156677 509
604393 391304 470
138201 785746 509
228994 841862 525
358939 842407 525
445316 126254 449
182960 727163 509
867301 620283 525
403016 753962 509
956348 411511 525
292078 173706 443
951295 875225 507
541938 178383 470
579053 100944 470
154777 495603 449
423180 540941 470
234778 438761 449
9367 149257 375
274917 258531 407
288102 675412 509
192738 132455 383
859274 545096 525
858584 945400 507
47313 236556 443
948130 161815 525
651541 721212 504
384734 215057 443
519236 271951 470
