157952 863014 525
3874 461530 449
383719 524838 470
436438 915567 525
707463 750612 424
33687 990889 525
523282 689983 509
91841 773507 509
719649 977951 525
340143 341937 335
760313 773970 468
587935 951997 525
297436 751092 509
11469 953566 525
420857 462748 444
193487 878869 525
374188 513894 470
232156 814244 509
455321 478524 444
201844 336178 443
58778 817039 509
406369 523313 470
688388 801890 504
254291 771432 509
95189 268164 443
607620 870091 525
389227 750304 509
461406 880478 525
643593 660752 429
708982 933210 525
105131 451857 449
390047 445781 449
53595 782164 509
257406 940808 525
26465 403080 443
420642 437334 418
52420 228838 386
540214 597054 452
227519 663049 509
908403 964139 507
212410 418533 449
519507 761776 509
268422 731190 509
3217 723619 509
524126 727055 509
389265 397101 405
556217 692484 509
154541 670986 509
234524 322955 407
858052 893789 445
696185 831011 504
98949 355481 443
93129 728932 509
286233 763709 509
665702 702760 442
436691 957532 525
52309 601355 470
389894 645683 509
700238 813827 504
112650 433543 449
536664 552311 452
432600 988001 525
361454 729597 509
211611 912419 525
82174 886845 525
391963 507692 449
199598 950761 525
819788 901920 525
213117 939694 525
654145 925725 525
383640 887797 525
289530 727692 509
149292 402313 443
447207 488412 444
699369 935832 525
280600 329322 389
205787 255590 443
259618 308019 407
440785 660912 509
734283 852519 525
504672 515098 470
757829 784871 468
63774 728546 509
3677 659589 509
657987 675532 442
412934 508540 444
571822 683749 509
90760 320081 443
839179 943661 507
52734 164654 383
747990 834052 468
309149 515828 470
131270 466432 449
11335 639684 509
156730 892502 525
841729 860865 419
53302 849306 525
269620 919523 525
82902 97340 333
163078 971149 525
723606 939144 525
208440 826053 509
175169 357988 443
359101 440102 449
316485 414792 449
905013 983626 507
231476 970002 525
760558 844573 525
746395 865195 525
902704 954483 507
112928 906444 525
133953 832377 509
110003 976093 525
351158 762041 509
89985 261794 443
733473 865610 525
81312 267882 443
233488 893967 525
544892 618988 452
380599 633722 509
249567 705584 509
576816 657588 509
29321 966833 525
87693 242850 443
507559 512705 470
279319 518100 470
41346 769213 509
237895 806490 509
622572 644415 509
57133 685718 509
309230 515196 470
109717 218155 386
378308 612778 470
171767 687252 509
140057 652867 509
742907 954221 525
633794 785302 504
366997 597318 470
177819 407011 443
34222 958578 525
187389 574443 470
359893 962812 525
45601 541341 470
592884 725525 509
76515 159151 383
659619 676191 442
475390 550495 470
230021 265908 443
164368 488428 449
393716 422605 449
25231 899991 525
190720 995272 525
27755 168881 383
287824 583996 470
323391 824378 509
926795 990904 507
57795 702335 509
609539 619725 447
486068 864786 525
72746 906443 525
684351 715292 504
58823 179574 383
452764 686441 509
77843 758621 509
659093 865445 525
103993 303061 443
459817 768903 509
36229 976410 525
40996 817143 509
272733 925303 525
333264 544435 470
423862 711891 509
49459 456311 449
758259 845114 525
44095 635463 509
529029 936861 525
778860 902920 525
11998 385255 443
88074 882393 525
730996 999818 525
456015 504480 444
593990 835469 509
427848 637921 509
48803 286591 443
401993 643754 509
638749 679136 442
286420 864229 525
446049 964194 525
107009 930969 525
260059 472526 449
78057 161897 383
265073 929929 525
311630 548677 470
26259 293586 443
252553 636121 509
806670 992960 525
248393 362442 441
629809 646313 416
422405 924283 525
24252 271440 443
421527 517999 470
874021 986617 507
91118 628846 509
567294 960751 525
489171 972856 525
247119 794496 509
158301 529534 470
492161 925950 525
169644 893974 525
683369 691608 398
447439 558281 470
61419 162369 383
455860 687511 509
758056 867571 525
44211 63792 340
85255 523693 470
125399 812627 509
61353 137924 354
100900 741842 509
509396 842581 525
684433 754393 504
258014 332081 407
277311 739545 509
359995 682878 509
38478 929767 525
603567 979109 525
206286 497040 449
925380 925584 202
625254 823715 509
379646 457005 449
503312 938722 525
459726 966261 525
453579 853683 525
342822 725868 509
78917 452334 449
265975 779187 509
410474 973640 525
536392 761764 509
509438 564005 470
887443 968583 507
329556 576957 470
319343 833386 509
483733 525009 470
217235 264167 443
258046 413882 449
197875 666244 509
171740 941478 525
77791 512896 470
313139 667862 509
